{
 "database": "./php/data/hockey15-16.db3",
 "ECHL": {
  "leagueinfo": {
   "name": "ECHL",
   "fullname": "ECHL",
   "country": "USA",
   "fullcountry": "United States",
   "date": "20151007",
   "playofffmt": "Division=1,Conference=5",
   "ordertype": "ORDER BY PCT DESC, GamesPlayed ASC, TWins DESC, Losses ASC, GoalsDifference DESC",
   "conferences": "yes",
   "divisions": "yes"
  },
  "quickinfo": {
   "conferenceinfo": {
    "Eastern": {
     "name": "Eastern",
     "fullname": "Eastern Conference",
     "league": "ECHL"
    },
    "Western": {
     "name": "Western",
     "fullname": "Western Conference",
     "league": "ECHL"
    }
   },
   "divisioninfo": {
    "East": {
     "name": "East",
     "fullname": "East Division",
     "league": "ECHL",
     "conference": "Eastern"
    },
    "North": {
     "name": "North",
     "fullname": "North Division",
     "league": "ECHL",
     "conference": "Eastern"
    },
    "South": {
     "name": "South",
     "fullname": "South Division",
     "league": "ECHL",
     "conference": "Eastern"
    },
    "Midwest": {
     "name": "Midwest",
     "fullname": "Midwest Division",
     "league": "ECHL",
     "conference": "Western"
    },
    "Central": {
     "name": "Central",
     "fullname": "Central Division",
     "league": "ECHL",
     "conference": "Western"
    },
    "West": {
     "name": "West",
     "fullname": "West Division",
     "league": "ECHL",
     "conference": "Western"
    }
   },
   "teaminfo": {
    "Jackals": {
     "name": "Jackals",
     "fullname": "Elmira Jackals",
     "league": "ECHL",
     "conference": "Eastern",
     "division": "East"
    },
    "Royals": {
     "name": "Royals",
     "fullname": "Reading Royals",
     "league": "ECHL",
     "conference": "Eastern",
     "division": "East"
    },
    "Admirals": {
     "name": "Admirals",
     "fullname": "Norfolk Admirals",
     "league": "ECHL",
     "conference": "Eastern",
     "division": "East"
    },
    "Thunder": {
     "name": "Thunder",
     "fullname": "Wichita Thunder",
     "league": "ECHL",
     "conference": "Western",
     "division": "Central"
    },
    "Monarchs": {
     "name": "Monarchs",
     "fullname": "Manchester Monarchs",
     "league": "ECHL",
     "conference": "Eastern",
     "division": "East"
    },
    "Wings": {
     "name": "Wings",
     "fullname": "Kalamazoo Wings",
     "league": "ECHL",
     "conference": "Eastern",
     "division": "North"
    },
    "Walleye": {
     "name": "Walleye",
     "fullname": "Toledo Walleye",
     "league": "ECHL",
     "conference": "Eastern",
     "division": "North"
    },
    "Nailers": {
     "name": "Nailers",
     "fullname": "Wheeling Nailers",
     "league": "ECHL",
     "conference": "Eastern",
     "division": "North"
    },
    "Beast": {
     "name": "Beast",
     "fullname": "Brampton Beast",
     "league": "ECHL",
     "conference": "Eastern",
     "division": "North"
    },
    "Gladiators": {
     "name": "Gladiators",
     "fullname": "Atlanta Gladiators",
     "league": "ECHL",
     "conference": "Eastern",
     "division": "South"
    },
    "Swamp Rabbits": {
     "name": "Swamp Rabbits",
     "fullname": "Greenville Swamp Rabbits",
     "league": "ECHL",
     "conference": "Eastern",
     "division": "South"
    },
    "Everblades": {
     "name": "Everblades",
     "fullname": "Florida Everblades",
     "league": "ECHL",
     "conference": "Eastern",
     "division": "South"
    },
    "Solar Bears": {
     "name": "Solar Bears",
     "fullname": "Orlando Solar Bears",
     "league": "ECHL",
     "conference": "Eastern",
     "division": "South"
    },
    "Stingrays": {
     "name": "Stingrays",
     "fullname": "South Carolina Stingrays",
     "league": "ECHL",
     "conference": "Eastern",
     "division": "South"
    },
    "Mallards": {
     "name": "Mallards",
     "fullname": "Quad City Mallards",
     "league": "ECHL",
     "conference": "Western",
     "division": "Midwest"
    },
    "IceMen": {
     "name": "IceMen",
     "fullname": "Evansville IceMen",
     "league": "ECHL",
     "conference": "Western",
     "division": "Midwest"
    },
    "Fuel": {
     "name": "Fuel",
     "fullname": "Indy Fuel",
     "league": "ECHL",
     "conference": "Western",
     "division": "Midwest"
    },
    "Komets": {
     "name": "Komets",
     "fullname": "Fort Wayne Komets",
     "league": "ECHL",
     "conference": "Western",
     "division": "Midwest"
    },
    "Cyclones": {
     "name": "Cyclones",
     "fullname": "Cincinnati Cyclones",
     "league": "ECHL",
     "conference": "Western",
     "division": "Midwest"
    },
    "Americans": {
     "name": "Americans",
     "fullname": "Allen Americans",
     "league": "ECHL",
     "conference": "Western",
     "division": "Central"
    },
    "Oilers": {
     "name": "Oilers",
     "fullname": "Tulsa Oilers",
     "league": "ECHL",
     "conference": "Western",
     "division": "Central"
    },
    "Mavericks": {
     "name": "Mavericks",
     "fullname": "Missouri Mavericks",
     "league": "ECHL",
     "conference": "Western",
     "division": "Central"
    },
    "Aces": {
     "name": "Aces",
     "fullname": "Alaska Aces",
     "league": "ECHL",
     "conference": "Western",
     "division": "West"
    },
    "Steelheads": {
     "name": "Steelheads",
     "fullname": "Idaho Steelheads",
     "league": "ECHL",
     "conference": "Western",
     "division": "West"
    },
    "Grizzlies": {
     "name": "Grizzlies",
     "fullname": "Utah Grizzlies",
     "league": "ECHL",
     "conference": "Western",
     "division": "West"
    },
    "Eagles": {
     "name": "Eagles",
     "fullname": "Colorado Eagles",
     "league": "ECHL",
     "conference": "Western",
     "division": "West"
    },
    "Rush": {
     "name": "Rush",
     "fullname": "Rapid City Rush",
     "league": "ECHL",
     "conference": "Western",
     "division": "West"
    }
   }
  },
  "Eastern": {
   "conferenceinfo": {
    "name": "Eastern",
    "prefix": "",
    "suffix": "Conference",
    "fullname": "Eastern Conference",
    "league": "ECHL"
   },
   "East": {
    "divisioninfo": {
     "name": "East",
     "prefix": "",
     "suffix": "Division",
     "fullname": "East Division",
     "league": "ECHL",
     "conference": "Eastern"
    },
    "Jackals": {
     "teaminfo": {
      "city": "Elmira",
      "area": "NY",
      "fullarea": "New York",
      "country": "USA",
      "fullcountry": "United States",
      "name": "Jackals",
      "fullname": "Elmira Jackals",
      "arena": "First Arena",
      "prefix": "Elmira",
      "suffix": "",
      "league": "ECHL",
      "conference": "Eastern",
      "division": "East"
     }
    },
    "Royals": {
     "teaminfo": {
      "city": "Reading",
      "area": "PA",
      "fullarea": "Pennsylvania",
      "country": "USA",
      "fullcountry": "United States",
      "name": "Royals",
      "fullname": "Reading Royals",
      "arena": "Santander Arena",
      "prefix": "Reading",
      "suffix": "",
      "league": "ECHL",
      "conference": "Eastern",
      "division": "East"
     }
    },
    "Admirals": {
     "teaminfo": {
      "city": "Norfolk",
      "area": "VA",
      "fullarea": "Virginia",
      "country": "USA",
      "fullcountry": "United States",
      "name": "Admirals",
      "fullname": "Norfolk Admirals",
      "arena": "Norfolk Scope",
      "prefix": "Norfolk",
      "suffix": "",
      "league": "ECHL",
      "conference": "Eastern",
      "division": "East"
     }
    },
    "Thunder": {
     "teaminfo": {
      "city": "Glens Falls",
      "area": "NY",
      "fullarea": "New York",
      "country": "USA",
      "fullcountry": "United States",
      "name": "Thunder",
      "fullname": "Adirondack Thunder",
      "arena": "Glens Falls Civic Center",
      "prefix": "Adirondack",
      "suffix": "",
      "league": "ECHL",
      "conference": "Eastern",
      "division": "East"
     }
    },
    "Monarchs": {
     "teaminfo": {
      "city": "Manchester",
      "area": "NH",
      "fullarea": "New Hampshire",
      "country": "USA",
      "fullcountry": "United States",
      "name": "Monarchs",
      "fullname": "Manchester Monarchs",
      "arena": "Verizon Wireless Arena",
      "prefix": "Manchester",
      "suffix": "",
      "league": "ECHL",
      "conference": "Eastern",
      "division": "East"
     }
    },
    "teamlist": [
     "Jackals",
     "Royals",
     "Admirals",
     "Thunder",
     "Monarchs"
    ]
   },
   "North": {
    "divisioninfo": {
     "name": "North",
     "prefix": "",
     "suffix": "Division",
     "fullname": "North Division",
     "league": "ECHL",
     "conference": "Eastern"
    },
    "Wings": {
     "teaminfo": {
      "city": "Kalamazoo",
      "area": "MI",
      "fullarea": "Michigan",
      "country": "USA",
      "fullcountry": "United States",
      "name": "Wings",
      "fullname": "Kalamazoo Wings",
      "arena": "Wings Event Center",
      "prefix": "Kalamazoo",
      "suffix": "",
      "league": "ECHL",
      "conference": "Eastern",
      "division": "North"
     }
    },
    "Walleye": {
     "teaminfo": {
      "city": "Toledo",
      "area": "OH",
      "fullarea": "Ohio",
      "country": "USA",
      "fullcountry": "United States",
      "name": "Walleye",
      "fullname": "Toledo Walleye",
      "arena": "Huntington Center",
      "prefix": "Toledo",
      "suffix": "",
      "league": "ECHL",
      "conference": "Eastern",
      "division": "North"
     }
    },
    "Nailers": {
     "teaminfo": {
      "city": "Wheeling",
      "area": "WV",
      "fullarea": "West Virginia",
      "country": "USA",
      "fullcountry": "United States",
      "name": "Nailers",
      "fullname": "Wheeling Nailers",
      "arena": "WesBanco Arena",
      "prefix": "Wheeling",
      "suffix": "",
      "league": "ECHL",
      "conference": "Eastern",
      "division": "North"
     }
    },
    "Beast": {
     "teaminfo": {
      "city": "Brampton",
      "area": "ON",
      "fullarea": "Ontario",
      "country": "CAN",
      "fullcountry": "Canada",
      "name": "Beast",
      "fullname": "Brampton Beast",
      "arena": "Powerade Centre",
      "prefix": "Brampton",
      "suffix": "",
      "league": "ECHL",
      "conference": "Eastern",
      "division": "North"
     }
    },
    "teamlist": [
     "Wings",
     "Walleye",
     "Nailers",
     "Beast"
    ]
   },
   "South": {
    "divisioninfo": {
     "name": "South",
     "prefix": "",
     "suffix": "Division",
     "fullname": "South Division",
     "league": "ECHL",
     "conference": "Eastern"
    },
    "Gladiators": {
     "teaminfo": {
      "city": "Duluth",
      "area": "GA",
      "fullarea": "Georgia",
      "country": "USA",
      "fullcountry": "United States",
      "name": "Gladiators",
      "fullname": "Atlanta Gladiators",
      "arena": "Infinite Energy Arena",
      "prefix": "Atlanta",
      "suffix": "",
      "league": "ECHL",
      "conference": "Eastern",
      "division": "South"
     }
    },
    "Swamp Rabbits": {
     "teaminfo": {
      "city": "Greenville",
      "area": "SC",
      "fullarea": "South Carolina",
      "country": "USA",
      "fullcountry": "United States",
      "name": "Swamp Rabbits",
      "fullname": "Greenville Swamp Rabbits",
      "arena": "Bon Secours Wellness Arena",
      "prefix": "Greenville",
      "suffix": "",
      "league": "ECHL",
      "conference": "Eastern",
      "division": "South"
     }
    },
    "Everblades": {
     "teaminfo": {
      "city": "Estero",
      "area": "FL",
      "fullarea": "Florida",
      "country": "USA",
      "fullcountry": "United States",
      "name": "Everblades",
      "fullname": "Florida Everblades",
      "arena": "Germain Arena",
      "prefix": "Florida",
      "suffix": "",
      "league": "ECHL",
      "conference": "Eastern",
      "division": "South"
     }
    },
    "Solar Bears": {
     "teaminfo": {
      "city": "Orlando",
      "area": "FL",
      "fullarea": "Florida",
      "country": "USA",
      "fullcountry": "United States",
      "name": "Solar Bears",
      "fullname": "Orlando Solar Bears",
      "arena": "Amway Center",
      "prefix": "Orlando",
      "suffix": "",
      "league": "ECHL",
      "conference": "Eastern",
      "division": "South"
     }
    },
    "Stingrays": {
     "teaminfo": {
      "city": "North Charleston",
      "area": "SC",
      "fullarea": "South Carolina",
      "country": "USA",
      "fullcountry": "United States",
      "name": "Stingrays",
      "fullname": "South Carolina Stingrays",
      "arena": "North Charleston Coliseum",
      "prefix": "South Carolina",
      "suffix": "",
      "league": "ECHL",
      "conference": "Eastern",
      "division": "South"
     }
    },
    "teamlist": [
     "Gladiators",
     "Swamp Rabbits",
     "Everblades",
     "Solar Bears",
     "Stingrays"
    ]
   },
   "divisionlist": [
    "East",
    "North",
    "South"
   ]
  },
  "arenas": [],
  "games": [],
  "Western": {
   "conferenceinfo": {
    "name": "Western",
    "prefix": "",
    "suffix": "Conference",
    "fullname": "Western Conference",
    "league": "ECHL"
   },
   "Midwest": {
    "divisioninfo": {
     "name": "Midwest",
     "prefix": "",
     "suffix": "Division",
     "fullname": "Midwest Division",
     "league": "ECHL",
     "conference": "Western"
    },
    "Mallards": {
     "teaminfo": {
      "city": "Moline",
      "area": "IL",
      "fullarea": "Illinois",
      "country": "USA",
      "fullcountry": "United States",
      "name": "Mallards",
      "fullname": "Quad City Mallards",
      "arena": "iWireless Center",
      "prefix": "Quad City",
      "suffix": "",
      "league": "ECHL",
      "conference": "Western",
      "division": "Midwest"
     }
    },
    "IceMen": {
     "teaminfo": {
      "city": "Evansville",
      "area": "IN",
      "fullarea": "Indiana",
      "country": "USA",
      "fullcountry": "United States",
      "name": "IceMen",
      "fullname": "Evansville IceMen",
      "arena": "Ford Center",
      "prefix": "Evansville",
      "suffix": "",
      "league": "ECHL",
      "conference": "Western",
      "division": "Midwest"
     }
    },
    "Fuel": {
     "teaminfo": {
      "city": "Indianapolis",
      "area": "IN",
      "fullarea": "Indiana",
      "country": "USA",
      "fullcountry": "United States",
      "name": "Fuel",
      "fullname": "Indy Fuel",
      "arena": "Indiana Farmers Coliseum",
      "prefix": "Indy",
      "suffix": "",
      "league": "ECHL",
      "conference": "Western",
      "division": "Midwest"
     }
    },
    "Komets": {
     "teaminfo": {
      "city": "Fort Wayne",
      "area": "IN",
      "fullarea": "Indiana",
      "country": "USA",
      "fullcountry": "United States",
      "name": "Komets",
      "fullname": "Fort Wayne Komets",
      "arena": "Allen County War Memorial Coliseum",
      "prefix": "Fort Wayne",
      "suffix": "",
      "league": "ECHL",
      "conference": "Western",
      "division": "Midwest"
     }
    },
    "Cyclones": {
     "teaminfo": {
      "city": "Cincinnati",
      "area": "OH",
      "fullarea": "Ohio",
      "country": "USA",
      "fullcountry": "United States",
      "name": "Cyclones",
      "fullname": "Cincinnati Cyclones",
      "arena": "US Bank Arena",
      "prefix": "Cincinnati",
      "suffix": "",
      "league": "ECHL",
      "conference": "Western",
      "division": "Midwest"
     }
    },
    "teamlist": [
     "Mallards",
     "IceMen",
     "Fuel",
     "Komets",
     "Cyclones"
    ]
   },
   "Central": {
    "divisioninfo": {
     "name": "Central",
     "prefix": "",
     "suffix": "Division",
     "fullname": "Central Division",
     "league": "ECHL",
     "conference": "Western"
    },
    "Thunder": {
     "teaminfo": {
      "city": "Wichita",
      "area": "KS",
      "fullarea": "Kansas",
      "country": "USA",
      "fullcountry": "United States",
      "name": "Thunder",
      "fullname": "Wichita Thunder",
      "arena": "Intrust Bank Arena",
      "prefix": "Wichita",
      "suffix": "",
      "league": "ECHL",
      "conference": "Western",
      "division": "Central"
     }
    },
    "Americans": {
     "teaminfo": {
      "city": "Allen",
      "area": "TX",
      "fullarea": "Texas",
      "country": "USA",
      "fullcountry": "United States",
      "name": "Americans",
      "fullname": "Allen Americans",
      "arena": "Allen Event Center",
      "prefix": "Allen",
      "suffix": "",
      "league": "ECHL",
      "conference": "Western",
      "division": "Central"
     }
    },
    "Oilers": {
     "teaminfo": {
      "city": "Tulsa",
      "area": "OK",
      "fullarea": "Oklahoma",
      "country": "USA",
      "fullcountry": "United States",
      "name": "Oilers",
      "fullname": "Tulsa Oilers",
      "arena": "BOK Center",
      "prefix": "Tulsa",
      "suffix": "",
      "league": "ECHL",
      "conference": "Western",
      "division": "Central"
     }
    },
    "Mavericks": {
     "teaminfo": {
      "city": "Independence",
      "area": "MO",
      "fullarea": "Missouri",
      "country": "USA",
      "fullcountry": "United States",
      "name": "Mavericks",
      "fullname": "Missouri Mavericks",
      "arena": "Silverstein Eye Centers Arena",
      "prefix": "Missouri",
      "suffix": "",
      "league": "ECHL",
      "conference": "Western",
      "division": "Central"
     }
    },
    "teamlist": [
     "Thunder",
     "Americans",
     "Oilers",
     "Mavericks"
    ]
   },
   "West": {
    "divisioninfo": {
     "name": "West",
     "prefix": "",
     "suffix": "Division",
     "fullname": "West Division",
     "league": "ECHL",
     "conference": "Western"
    },
    "Aces": {
     "teaminfo": {
      "city": "Anchorage",
      "area": "AK",
      "fullarea": "Alaska",
      "country": "USA",
      "fullcountry": "United States",
      "name": "Aces",
      "fullname": "Alaska Aces",
      "arena": "Sullivan Arena",
      "prefix": "Alaska",
      "suffix": "",
      "league": "ECHL",
      "conference": "Western",
      "division": "West"
     }
    },
    "Steelheads": {
     "teaminfo": {
      "city": "Boise",
      "area": "ID",
      "fullarea": "Idaho",
      "country": "USA",
      "fullcountry": "United States",
      "name": "Steelheads",
      "fullname": "Idaho Steelheads",
      "arena": "CenturyLink Arena",
      "prefix": "Idaho",
      "suffix": "",
      "league": "ECHL",
      "conference": "Western",
      "division": "West"
     }
    },
    "Grizzlies": {
     "teaminfo": {
      "city": "West Valley City",
      "area": "UT",
      "fullarea": "Utah",
      "country": "USA",
      "fullcountry": "United States",
      "name": "Grizzlies",
      "fullname": "Utah Grizzlies",
      "arena": "Maverik Center",
      "prefix": "Utah",
      "suffix": "",
      "league": "ECHL",
      "conference": "Western",
      "division": "West"
     }
    },
    "Eagles": {
     "teaminfo": {
      "city": "Loveland",
      "area": "CO",
      "fullarea": "Colorado",
      "country": "USA",
      "fullcountry": "United States",
      "name": "Eagles",
      "fullname": "Colorado Eagles",
      "arena": "Budweiser Events Center",
      "prefix": "Colorado",
      "suffix": "",
      "league": "ECHL",
      "conference": "Western",
      "division": "West"
     }
    },
    "Rush": {
     "teaminfo": {
      "city": "Rapid City",
      "area": "SD",
      "fullarea": "South Dakota",
      "country": "USA",
      "fullcountry": "United States",
      "name": "Rush",
      "fullname": "Rapid City Rush",
      "arena": "Rushmore Plaza Civic Center",
      "prefix": "Rapid City",
      "suffix": "",
      "league": "ECHL",
      "conference": "Western",
      "division": "West"
     }
    },
    "teamlist": [
     "Aces",
     "Steelheads",
     "Grizzlies",
     "Eagles",
     "Rush"
    ]
   },
   "divisionlist": [
    "Midwest",
    "Central",
    "West"
   ]
  },
  "conferencelist": [
   "Eastern",
   "Western"
  ]
 },
 "AHL": {
  "leagueinfo": {
   "name": "AHL",
   "fullname": "American Hockey League",
   "country": "USA",
   "fullcountry": "United States",
   "date": "20151009",
   "playofffmt": "Division=4",
   "ordertype": "ORDER BY PCT DESC, GamesPlayed ASC, TWins DESC, Losses ASC, GoalsDifference DESC",
   "conferences": "yes",
   "divisions": "yes"
  },
  "quickinfo": {
   "conferenceinfo": {
    "Eastern": {
     "name": "Eastern",
     "fullname": "Eastern Conference",
     "league": "AHL"
    },
    "Western": {
     "name": "Western",
     "fullname": "Western Conference",
     "league": "AHL"
    }
   },
   "divisioninfo": {
    "Atlantic": {
     "name": "Atlantic",
     "fullname": "Atlantic Division",
     "league": "AHL",
     "conference": "Eastern"
    },
    "North": {
     "name": "North",
     "fullname": "North Division",
     "league": "AHL",
     "conference": "Eastern"
    },
    "Central": {
     "name": "Central",
     "fullname": "Central Division",
     "league": "AHL",
     "conference": "Western"
    },
    "Pacific": {
     "name": "Pacific",
     "fullname": "Pacific Division",
     "league": "AHL",
     "conference": "Western"
    }
   },
   "teaminfo": {
    "Sound Tigers": {
     "name": "Sound Tigers",
     "fullname": "Bridgeport Sound Tigers",
     "league": "AHL",
     "conference": "Eastern",
     "division": "Atlantic"
    },
    "Wolf Pack": {
     "name": "Wolf Pack",
     "fullname": "Hartford Wolf Pack",
     "league": "AHL",
     "conference": "Eastern",
     "division": "Atlantic"
    },
    "Bears": {
     "name": "Bears",
     "fullname": "Hershey Bears",
     "league": "AHL",
     "conference": "Eastern",
     "division": "Atlantic"
    },
    "Phantoms": {
     "name": "Phantoms",
     "fullname": "Lehigh Valley Phantoms",
     "league": "AHL",
     "conference": "Eastern",
     "division": "Atlantic"
    },
    "Pirates": {
     "name": "Pirates",
     "fullname": "Portland Pirates",
     "league": "AHL",
     "conference": "Eastern",
     "division": "Atlantic"
    },
    "Bruins": {
     "name": "Bruins",
     "fullname": "Providence Bruins",
     "league": "AHL",
     "conference": "Eastern",
     "division": "Atlantic"
    },
    "Falcons": {
     "name": "Falcons",
     "fullname": "Springfield Falcons",
     "league": "AHL",
     "conference": "Eastern",
     "division": "Atlantic"
    },
    "Penguins": {
     "name": "Penguins",
     "fullname": "Wilkes-Barre/Scranton Penguins",
     "league": "AHL",
     "conference": "Eastern",
     "division": "Atlantic"
    },
    "Devils": {
     "name": "Devils",
     "fullname": "Albany Devils",
     "league": "AHL",
     "conference": "Eastern",
     "division": "North"
    },
    "Senators": {
     "name": "Senators",
     "fullname": "Binghamton Senators",
     "league": "AHL",
     "conference": "Eastern",
     "division": "North"
    },
    "Americans": {
     "name": "Americans",
     "fullname": "Rochester Americans",
     "league": "AHL",
     "conference": "Eastern",
     "division": "North"
    },
    "IceCaps": {
     "name": "IceCaps",
     "fullname": "St. John's IceCaps",
     "league": "AHL",
     "conference": "Eastern",
     "division": "North"
    },
    "Crunch": {
     "name": "Crunch",
     "fullname": "Syracuse Crunch",
     "league": "AHL",
     "conference": "Eastern",
     "division": "North"
    },
    "Marlies": {
     "name": "Marlies",
     "fullname": "Toronto Marlies",
     "league": "AHL",
     "conference": "Eastern",
     "division": "North"
    },
    "Comets": {
     "name": "Comets",
     "fullname": "Utica Comets",
     "league": "AHL",
     "conference": "Eastern",
     "division": "North"
    },
    "Checkers": {
     "name": "Checkers",
     "fullname": "Charlotte Checkers",
     "league": "AHL",
     "conference": "Western",
     "division": "Central"
    },
    "Wolves": {
     "name": "Wolves",
     "fullname": "Chicago Wolves",
     "league": "AHL",
     "conference": "Western",
     "division": "Central"
    },
    "Griffins": {
     "name": "Griffins",
     "fullname": "Grand Rapids Griffins",
     "league": "AHL",
     "conference": "Western",
     "division": "Central"
    },
    "Wild": {
     "name": "Wild",
     "fullname": "Iowa Wild",
     "league": "AHL",
     "conference": "Western",
     "division": "Central"
    },
    "Monsters": {
     "name": "Monsters",
     "fullname": "Lake Erie Monsters",
     "league": "AHL",
     "conference": "Western",
     "division": "Central"
    },
    "Moose": {
     "name": "Moose",
     "fullname": "Manitoba Moose",
     "league": "AHL",
     "conference": "Western",
     "division": "Central"
    },
    "Admirals": {
     "name": "Admirals",
     "fullname": "Milwaukee Admirals",
     "league": "AHL",
     "conference": "Western",
     "division": "Central"
    },
    "IceHogs": {
     "name": "IceHogs",
     "fullname": "Rockford IceHogs",
     "league": "AHL",
     "conference": "Western",
     "division": "Central"
    },
    "Condors": {
     "name": "Condors",
     "fullname": "Bakersfield Condors",
     "league": "AHL",
     "conference": "Western",
     "division": "Pacific"
    },
    "Reign": {
     "name": "Reign",
     "fullname": "Ontario Reign",
     "league": "AHL",
     "conference": "Western",
     "division": "Pacific"
    },
    "Rampage": {
     "name": "Rampage",
     "fullname": "San Antonio Rampage",
     "league": "AHL",
     "conference": "Western",
     "division": "Pacific"
    },
    "Gulls": {
     "name": "Gulls",
     "fullname": "San Diego Gulls",
     "league": "AHL",
     "conference": "Western",
     "division": "Pacific"
    },
    "Barracuda": {
     "name": "Barracuda",
     "fullname": "San Jose Barracuda",
     "league": "AHL",
     "conference": "Western",
     "division": "Pacific"
    },
    "Heat": {
     "name": "Heat",
     "fullname": "Stockton Heat",
     "league": "AHL",
     "conference": "Western",
     "division": "Pacific"
    },
    "Stars": {
     "name": "Stars",
     "fullname": "Texas Stars",
     "league": "AHL",
     "conference": "Western",
     "division": "Pacific"
    }
   }
  },
  "Eastern": {
   "conferenceinfo": {
    "name": "Eastern",
    "prefix": "",
    "suffix": "Conference",
    "fullname": "Eastern Conference",
    "league": "AHL"
   },
   "Atlantic": {
    "divisioninfo": {
     "name": "Atlantic",
     "prefix": "",
     "suffix": "Division",
     "fullname": "Atlantic Division",
     "league": "AHL",
     "conference": "Eastern"
    },
    "Sound Tigers": {
     "teaminfo": {
      "city": "Bridgeport",
      "area": "CT",
      "fullarea": "Connecticut",
      "country": "USA",
      "fullcountry": "United States",
      "name": "Sound Tigers",
      "fullname": "Bridgeport Sound Tigers",
      "arena": "Webster Bank Arena",
      "prefix": "Bridgeport",
      "suffix": "",
      "league": "AHL",
      "conference": "Eastern",
      "division": "Atlantic"
     }
    },
    "Wolf Pack": {
     "teaminfo": {
      "city": "Hartford",
      "area": "CT",
      "fullarea": "Connecticut",
      "country": "USA",
      "fullcountry": "United States",
      "name": "Wolf Pack",
      "fullname": "Hartford Wolf Pack",
      "arena": "XL Center",
      "prefix": "Hartford",
      "suffix": "",
      "league": "AHL",
      "conference": "Eastern",
      "division": "Atlantic"
     }
    },
    "Bears": {
     "teaminfo": {
      "city": "Hershey",
      "area": "PA",
      "fullarea": "Pennsylvania",
      "country": "USA",
      "fullcountry": "United States",
      "name": "Bears",
      "fullname": "Hershey Bears",
      "arena": "Giant Center",
      "prefix": "Hershey",
      "suffix": "",
      "league": "AHL",
      "conference": "Eastern",
      "division": "Atlantic"
     }
    },
    "Phantoms": {
     "teaminfo": {
      "city": "Allentown",
      "area": "PA",
      "fullarea": "Pennsylvania",
      "country": "USA",
      "fullcountry": "United States",
      "name": "Phantoms",
      "fullname": "Lehigh Valley Phantoms",
      "arena": "PPL Center",
      "prefix": "Lehigh Valley",
      "suffix": "",
      "league": "AHL",
      "conference": "Eastern",
      "division": "Atlantic"
     }
    },
    "Pirates": {
     "teaminfo": {
      "city": "Portland",
      "area": "ME",
      "fullarea": "Maine",
      "country": "USA",
      "fullcountry": "United States",
      "name": "Pirates",
      "fullname": "Portland Pirates",
      "arena": "Cross Insurance Arena",
      "prefix": "Portland",
      "suffix": "",
      "league": "AHL",
      "conference": "Eastern",
      "division": "Atlantic"
     }
    },
    "Bruins": {
     "teaminfo": {
      "city": "Providence",
      "area": "RI",
      "fullarea": "Rhode Island",
      "country": "USA",
      "fullcountry": "United States",
      "name": "Bruins",
      "fullname": "Providence Bruins",
      "arena": "Dunkin' Donuts Center",
      "prefix": "Providence",
      "suffix": "",
      "league": "AHL",
      "conference": "Eastern",
      "division": "Atlantic"
     }
    },
    "Falcons": {
     "teaminfo": {
      "city": "Springfield",
      "area": "MA",
      "fullarea": "Massachusetts",
      "country": "USA",
      "fullcountry": "United States",
      "name": "Falcons",
      "fullname": "Springfield Falcons",
      "arena": "MassMutual Center",
      "prefix": "Springfield",
      "suffix": "",
      "league": "AHL",
      "conference": "Eastern",
      "division": "Atlantic"
     }
    },
    "Penguins": {
     "teaminfo": {
      "city": "Wilkes-Barre",
      "area": "PA",
      "fullarea": "Pennsylvania",
      "country": "USA",
      "fullcountry": "United States",
      "name": "Penguins",
      "fullname": "Wilkes-Barre/Scranton Penguins",
      "arena": "Mohegan Sun Arena",
      "prefix": "Wilkes-Barre/Scranton",
      "suffix": "",
      "league": "AHL",
      "conference": "Eastern",
      "division": "Atlantic"
     }
    },
    "teamlist": [
     "Sound Tigers",
     "Wolf Pack",
     "Bears",
     "Phantoms",
     "Pirates",
     "Bruins",
     "Falcons",
     "Penguins"
    ]
   },
   "North": {
    "divisioninfo": {
     "name": "North",
     "prefix": "",
     "suffix": "Division",
     "fullname": "North Division",
     "league": "AHL",
     "conference": "Eastern"
    },
    "Devils": {
     "teaminfo": {
      "city": "Albany",
      "area": "NY",
      "fullarea": "New York",
      "country": "USA",
      "fullcountry": "United States",
      "name": "Devils",
      "fullname": "Albany Devils",
      "arena": "Times Union Center",
      "prefix": "Albany",
      "suffix": "",
      "league": "AHL",
      "conference": "Eastern",
      "division": "North"
     }
    },
    "Senators": {
     "teaminfo": {
      "city": "Binghamton",
      "area": "NY",
      "fullarea": "New York",
      "country": "USA",
      "fullcountry": "United States",
      "name": "Senators",
      "fullname": "Binghamton Senators",
      "arena": "Floyd L. Maines Veterans Memorial Arena",
      "prefix": "Binghamton",
      "suffix": "",
      "league": "AHL",
      "conference": "Eastern",
      "division": "North"
     }
    },
    "Americans": {
     "teaminfo": {
      "city": "Rochester",
      "area": "NY",
      "fullarea": "New York",
      "country": "USA",
      "fullcountry": "United States",
      "name": "Americans",
      "fullname": "Rochester Americans",
      "arena": "Blue Cross Arena",
      "prefix": "Rochester",
      "suffix": "",
      "league": "AHL",
      "conference": "Eastern",
      "division": "North"
     }
    },
    "IceCaps": {
     "teaminfo": {
      "city": "St. John's",
      "area": "NL",
      "fullarea": "Newfoundland and Labrador",
      "country": "CAN",
      "fullcountry": "Canada",
      "name": "IceCaps",
      "fullname": "St. John's IceCaps",
      "arena": "Mile One Centre",
      "prefix": "St. John's",
      "suffix": "",
      "league": "AHL",
      "conference": "Eastern",
      "division": "North"
     }
    },
    "Crunch": {
     "teaminfo": {
      "city": "Syracuse",
      "area": "NY",
      "fullarea": "New York",
      "country": "USA",
      "fullcountry": "United States",
      "name": "Crunch",
      "fullname": "Syracuse Crunch",
      "arena": "Oncenter War Memorial Arena",
      "prefix": "Syracuse",
      "suffix": "",
      "league": "AHL",
      "conference": "Eastern",
      "division": "North"
     }
    },
    "Marlies": {
     "teaminfo": {
      "city": "Toronto",
      "area": "ON",
      "fullarea": "Ontario",
      "country": "CAN",
      "fullcountry": "Canada",
      "name": "Marlies",
      "fullname": "Toronto Marlies",
      "arena": "Ricoh Coliseum",
      "prefix": "Toronto",
      "suffix": "",
      "league": "AHL",
      "conference": "Eastern",
      "division": "North"
     }
    },
    "Comets": {
     "teaminfo": {
      "city": "Utica",
      "area": "NY",
      "fullarea": "New York",
      "country": "USA",
      "fullcountry": "United States",
      "name": "Comets",
      "fullname": "Utica Comets",
      "arena": "Utica Memorial Auditorium",
      "prefix": "Utica",
      "suffix": "",
      "league": "AHL",
      "conference": "Eastern",
      "division": "North"
     }
    },
    "teamlist": [
     "Devils",
     "Senators",
     "Americans",
     "IceCaps",
     "Crunch",
     "Marlies",
     "Comets"
    ]
   },
   "divisionlist": [
    "Atlantic",
    "North"
   ]
  },
  "arenas": [
   {
    "city": "West Sacramento",
    "area": "CA",
    "fullarea": "California",
    "country": "USA",
    "fullcountry": "United States",
    "name": "Raley Field"
   }
  ],
  "games": [],
  "Western": {
   "conferenceinfo": {
    "name": "Western",
    "prefix": "",
    "suffix": "Conference",
    "fullname": "Western Conference",
    "league": "AHL"
   },
   "Central": {
    "divisioninfo": {
     "name": "Central",
     "prefix": "",
     "suffix": "Division",
     "fullname": "Central Division",
     "league": "AHL",
     "conference": "Western"
    },
    "Checkers": {
     "teaminfo": {
      "city": "Charlotte",
      "area": "NC",
      "fullarea": "North Carolina",
      "country": "USA",
      "fullcountry": "United States",
      "name": "Checkers",
      "fullname": "Charlotte Checkers",
      "arena": "Bojangles Coliseum",
      "prefix": "Charlotte",
      "suffix": "",
      "league": "AHL",
      "conference": "Western",
      "division": "Central"
     }
    },
    "Wolves": {
     "teaminfo": {
      "city": "Rosemont",
      "area": "IL",
      "fullarea": "Illinois",
      "country": "USA",
      "fullcountry": "United States",
      "name": "Wolves",
      "fullname": "Chicago Wolves",
      "arena": "Allstate Arena",
      "prefix": "Chicago",
      "suffix": "",
      "league": "AHL",
      "conference": "Western",
      "division": "Central"
     }
    },
    "Griffins": {
     "teaminfo": {
      "city": "Grand Rapids",
      "area": "MI",
      "fullarea": "Michigan",
      "country": "USA",
      "fullcountry": "United States",
      "name": "Griffins",
      "fullname": "Grand Rapids Griffins",
      "arena": "Van Andel Arena",
      "prefix": "Grand Rapids",
      "suffix": "",
      "league": "AHL",
      "conference": "Western",
      "division": "Central"
     }
    },
    "Wild": {
     "teaminfo": {
      "city": "Des Moines",
      "area": "IA",
      "fullarea": "Iowa",
      "country": "USA",
      "fullcountry": "United States",
      "name": "Wild",
      "fullname": "Iowa Wild",
      "arena": "Wells Fargo Arena",
      "prefix": "Iowa",
      "suffix": "",
      "league": "AHL",
      "conference": "Western",
      "division": "Central"
     }
    },
    "Monsters": {
     "teaminfo": {
      "city": "Cleveland",
      "area": "OH",
      "fullarea": "Ohio",
      "country": "USA",
      "fullcountry": "United States",
      "name": "Monsters",
      "fullname": "Lake Erie Monsters",
      "arena": "Quicken Loans Arena",
      "prefix": "Lake Erie",
      "suffix": "",
      "league": "AHL",
      "conference": "Western",
      "division": "Central"
     }
    },
    "Moose": {
     "teaminfo": {
      "city": "Winnipeg",
      "area": "MB",
      "fullarea": "Manitoba",
      "country": "CAN",
      "fullcountry": "Canada",
      "name": "Moose",
      "fullname": "Manitoba Moose",
      "arena": "MTS Centre",
      "prefix": "Manitoba",
      "suffix": "",
      "league": "AHL",
      "conference": "Western",
      "division": "Central"
     }
    },
    "Admirals": {
     "teaminfo": {
      "city": "Milwaukee",
      "area": "WI",
      "fullarea": "Wisconsin",
      "country": "USA",
      "fullcountry": "United States",
      "name": "Admirals",
      "fullname": "Milwaukee Admirals",
      "arena": "BMO Harris Bradley Center",
      "prefix": "Milwaukee",
      "suffix": "",
      "league": "AHL",
      "conference": "Western",
      "division": "Central"
     }
    },
    "IceHogs": {
     "teaminfo": {
      "city": "Rockford",
      "area": "IL",
      "fullarea": "Illinois",
      "country": "USA",
      "fullcountry": "United States",
      "name": "IceHogs",
      "fullname": "Rockford IceHogs",
      "arena": "BMO Harris Bank Center",
      "prefix": "Rockford",
      "suffix": "",
      "league": "AHL",
      "conference": "Western",
      "division": "Central"
     }
    },
    "teamlist": [
     "Checkers",
     "Wolves",
     "Griffins",
     "Wild",
     "Monsters",
     "Moose",
     "Admirals",
     "IceHogs"
    ]
   },
   "Pacific": {
    "divisioninfo": {
     "name": "Pacific",
     "prefix": "",
     "suffix": "Division",
     "fullname": "Pacific Division",
     "league": "AHL",
     "conference": "Western"
    },
    "Condors": {
     "teaminfo": {
      "city": "Bakersfield",
      "area": "CA",
      "fullarea": "California",
      "country": "USA",
      "fullcountry": "United States",
      "name": "Condors",
      "fullname": "Bakersfield Condors",
      "arena": "Rabobank Arena",
      "prefix": "Bakersfield",
      "suffix": "",
      "league": "AHL",
      "conference": "Western",
      "division": "Pacific"
     }
    },
    "Reign": {
     "teaminfo": {
      "city": "Ontario",
      "area": "CA",
      "fullarea": "California",
      "country": "USA",
      "fullcountry": "United States",
      "name": "Reign",
      "fullname": "Ontario Reign",
      "arena": "Citizens Business Bank Arena",
      "prefix": "Ontario",
      "suffix": "",
      "league": "AHL",
      "conference": "Western",
      "division": "Pacific"
     }
    },
    "Rampage": {
     "teaminfo": {
      "city": "San Antonio",
      "area": "TX",
      "fullarea": "Texas",
      "country": "USA",
      "fullcountry": "United States",
      "name": "Rampage",
      "fullname": "San Antonio Rampage",
      "arena": "AT&T Center",
      "prefix": "San Antonio",
      "suffix": "",
      "league": "AHL",
      "conference": "Western",
      "division": "Pacific"
     }
    },
    "Gulls": {
     "teaminfo": {
      "city": "San Diego",
      "area": "CA",
      "fullarea": "California",
      "country": "USA",
      "fullcountry": "United States",
      "name": "Gulls",
      "fullname": "San Diego Gulls",
      "arena": "Valley View Casino Center",
      "prefix": "San Diego",
      "suffix": "",
      "league": "AHL",
      "conference": "Western",
      "division": "Pacific"
     }
    },
    "Barracuda": {
     "teaminfo": {
      "city": "San Jose",
      "area": "CA",
      "fullarea": "California",
      "country": "USA",
      "fullcountry": "United States",
      "name": "Barracuda",
      "fullname": "San Jose Barracuda",
      "arena": "SAP Center",
      "prefix": "San Jose",
      "suffix": "",
      "league": "AHL",
      "conference": "Western",
      "division": "Pacific"
     }
    },
    "Heat": {
     "teaminfo": {
      "city": "Stockton",
      "area": "CA",
      "fullarea": "California",
      "country": "USA",
      "fullcountry": "United States",
      "name": "Heat",
      "fullname": "Stockton Heat",
      "arena": "Stockton Arena",
      "prefix": "Stockton",
      "suffix": "",
      "league": "AHL",
      "conference": "Western",
      "division": "Pacific"
     }
    },
    "Stars": {
     "teaminfo": {
      "city": "Cedar Park",
      "area": "TX",
      "fullarea": "Texas",
      "country": "USA",
      "fullcountry": "United States",
      "name": "Stars",
      "fullname": "Texas Stars",
      "arena": "Cedar Park Center",
      "prefix": "Texas",
      "suffix": "",
      "league": "AHL",
      "conference": "Western",
      "division": "Pacific"
     }
    },
    "teamlist": [
     "Condors",
     "Reign",
     "Rampage",
     "Gulls",
     "Barracuda",
     "Heat",
     "Stars"
    ]
   },
   "divisionlist": [
    "Central",
    "Pacific"
   ]
  },
  "conferencelist": [
   "Eastern",
   "Western"
  ]
 },
 "NHL": {
  "leagueinfo": {
   "name": "NHL",
   "fullname": "National Hockey League",
   "country": "USA",
   "fullcountry": "United States",
   "date": "20151007",
   "playofffmt": "Division=3,Conference=2",
   "ordertype": "ORDER BY Points DESC, GamesPlayed ASC, TWins DESC, Losses ASC, GoalsDifference DESC",
   "conferences": "yes",
   "divisions": "yes"
  },
  "quickinfo": {
   "conferenceinfo": {
    "Eastern": {
     "name": "Eastern",
     "fullname": "Eastern Conference",
     "league": "NHL"
    },
    "Western": {
     "name": "Western",
     "fullname": "Western Conference",
     "league": "NHL"
    }
   },
   "divisioninfo": {
    "Atlantic": {
     "name": "Atlantic",
     "fullname": "Atlantic Division",
     "league": "NHL",
     "conference": "Eastern"
    },
    "Metropolitan": {
     "name": "Metropolitan",
     "fullname": "Metropolitan Division",
     "league": "NHL",
     "conference": "Eastern"
    },
    "Central": {
     "name": "Central",
     "fullname": "Central Division",
     "league": "NHL",
     "conference": "Western"
    },
    "Pacific": {
     "name": "Pacific",
     "fullname": "Pacific Division",
     "league": "NHL",
     "conference": "Western"
    }
   },
   "teaminfo": {
    "Bruins": {
     "name": "Bruins",
     "fullname": "Boston Bruins",
     "league": "NHL",
     "conference": "Eastern",
     "division": "Atlantic"
    },
    "Sabres": {
     "name": "Sabres",
     "fullname": "Buffalo Sabres",
     "league": "NHL",
     "conference": "Eastern",
     "division": "Atlantic"
    },
    "Red Wings": {
     "name": "Red Wings",
     "fullname": "Detroit Red Wings",
     "league": "NHL",
     "conference": "Eastern",
     "division": "Atlantic"
    },
    "Panthers": {
     "name": "Panthers",
     "fullname": "Florida Panthers",
     "league": "NHL",
     "conference": "Eastern",
     "division": "Atlantic"
    },
    "Canadiens": {
     "name": "Canadiens",
     "fullname": "Montreal Canadiens",
     "league": "NHL",
     "conference": "Eastern",
     "division": "Atlantic"
    },
    "Senators": {
     "name": "Senators",
     "fullname": "Ottawa Senators",
     "league": "NHL",
     "conference": "Eastern",
     "division": "Atlantic"
    },
    "Lightning": {
     "name": "Lightning",
     "fullname": "Tampa Bay Lightning",
     "league": "NHL",
     "conference": "Eastern",
     "division": "Atlantic"
    },
    "Maple Leafs": {
     "name": "Maple Leafs",
     "fullname": "Toronto Maple Leafs",
     "league": "NHL",
     "conference": "Eastern",
     "division": "Atlantic"
    },
    "Hurricanes": {
     "name": "Hurricanes",
     "fullname": "Carolina Hurricanes",
     "league": "NHL",
     "conference": "Eastern",
     "division": "Metropolitan"
    },
    "Blue Jackets": {
     "name": "Blue Jackets",
     "fullname": "Columbus Blue Jackets",
     "league": "NHL",
     "conference": "Eastern",
     "division": "Metropolitan"
    },
    "Devils": {
     "name": "Devils",
     "fullname": "New Jersey Devils",
     "league": "NHL",
     "conference": "Eastern",
     "division": "Metropolitan"
    },
    "Islanders": {
     "name": "Islanders",
     "fullname": "New York Islanders",
     "league": "NHL",
     "conference": "Eastern",
     "division": "Metropolitan"
    },
    "Rangers": {
     "name": "Rangers",
     "fullname": "New York Rangers",
     "league": "NHL",
     "conference": "Eastern",
     "division": "Metropolitan"
    },
    "Flyers": {
     "name": "Flyers",
     "fullname": "Philadelphia Flyers",
     "league": "NHL",
     "conference": "Eastern",
     "division": "Metropolitan"
    },
    "Penguins": {
     "name": "Penguins",
     "fullname": "Pittsburgh Penguins",
     "league": "NHL",
     "conference": "Eastern",
     "division": "Metropolitan"
    },
    "Capitals": {
     "name": "Capitals",
     "fullname": "Washington Capitals",
     "league": "NHL",
     "conference": "Eastern",
     "division": "Metropolitan"
    },
    "Blackhawks": {
     "name": "Blackhawks",
     "fullname": "Chicago Blackhawks",
     "league": "NHL",
     "conference": "Western",
     "division": "Central"
    },
    "Avalanche": {
     "name": "Avalanche",
     "fullname": "Colorado Avalanche",
     "league": "NHL",
     "conference": "Western",
     "division": "Central"
    },
    "Stars": {
     "name": "Stars",
     "fullname": "Dallas Stars",
     "league": "NHL",
     "conference": "Western",
     "division": "Central"
    },
    "Wild": {
     "name": "Wild",
     "fullname": "Minnesota Wild",
     "league": "NHL",
     "conference": "Western",
     "division": "Central"
    },
    "Predators": {
     "name": "Predators",
     "fullname": "Nashville Predators",
     "league": "NHL",
     "conference": "Western",
     "division": "Central"
    },
    "Blues": {
     "name": "Blues",
     "fullname": "St. Louis Blues",
     "league": "NHL",
     "conference": "Western",
     "division": "Central"
    },
    "Jets": {
     "name": "Jets",
     "fullname": "Winnipeg Jets",
     "league": "NHL",
     "conference": "Western",
     "division": "Central"
    },
    "Ducks": {
     "name": "Ducks",
     "fullname": "Anaheim Ducks",
     "league": "NHL",
     "conference": "Western",
     "division": "Pacific"
    },
    "Coyotes": {
     "name": "Coyotes",
     "fullname": "Arizona Coyotes",
     "league": "NHL",
     "conference": "Western",
     "division": "Pacific"
    },
    "Flames": {
     "name": "Flames",
     "fullname": "Calgary Flames",
     "league": "NHL",
     "conference": "Western",
     "division": "Pacific"
    },
    "Oilers": {
     "name": "Oilers",
     "fullname": "Edmonton Oilers",
     "league": "NHL",
     "conference": "Western",
     "division": "Pacific"
    },
    "Kings": {
     "name": "Kings",
     "fullname": "Los Angeles Kings",
     "league": "NHL",
     "conference": "Western",
     "division": "Pacific"
    },
    "Sharks": {
     "name": "Sharks",
     "fullname": "San Jose Sharks",
     "league": "NHL",
     "conference": "Western",
     "division": "Pacific"
    },
    "Canucks": {
     "name": "Canucks",
     "fullname": "Vancouver Canucks",
     "league": "NHL",
     "conference": "Western",
     "division": "Pacific"
    }
   }
  },
  "Eastern": {
   "conferenceinfo": {
    "name": "Eastern",
    "prefix": "",
    "suffix": "Conference",
    "fullname": "Eastern Conference",
    "league": "NHL"
   },
   "Atlantic": {
    "divisioninfo": {
     "name": "Atlantic",
     "prefix": "",
     "suffix": "Division",
     "fullname": "Atlantic Division",
     "league": "NHL",
     "conference": "Eastern"
    },
    "Bruins": {
     "teaminfo": {
      "city": "Boston",
      "area": "MA",
      "fullarea": "Massachusetts",
      "country": "USA",
      "fullcountry": "United States",
      "name": "Bruins",
      "fullname": "Boston Bruins",
      "arena": "TD Garden",
      "prefix": "Boston",
      "suffix": "",
      "league": "NHL",
      "conference": "Eastern",
      "division": "Atlantic"
     }
    },
    "Sabres": {
     "teaminfo": {
      "city": "Buffalo",
      "area": "NY",
      "fullarea": "New York",
      "country": "USA",
      "fullcountry": "United States",
      "name": "Sabres",
      "fullname": "Buffalo Sabres",
      "arena": "First Niagara Center",
      "prefix": "Buffalo",
      "suffix": "",
      "league": "NHL",
      "conference": "Eastern",
      "division": "Atlantic"
     }
    },
    "Red Wings": {
     "teaminfo": {
      "city": "Detroit",
      "area": "MI",
      "fullarea": "Michigan",
      "country": "USA",
      "fullcountry": "United States",
      "name": "Red Wings",
      "fullname": "Detroit Red Wings",
      "arena": "Joe Louis Arena",
      "prefix": "Detroit",
      "suffix": "",
      "league": "NHL",
      "conference": "Eastern",
      "division": "Atlantic"
     }
    },
    "Panthers": {
     "teaminfo": {
      "city": "Sunrise",
      "area": "FL",
      "fullarea": "Florida",
      "country": "USA",
      "fullcountry": "United States",
      "name": "Panthers",
      "fullname": "Florida Panthers",
      "arena": "BB&T Center",
      "prefix": "Florida",
      "suffix": "",
      "league": "NHL",
      "conference": "Eastern",
      "division": "Atlantic"
     }
    },
    "Canadiens": {
     "teaminfo": {
      "city": "Montreal",
      "area": "QC",
      "fullarea": "Quebec",
      "country": "CAN",
      "fullcountry": "Canada",
      "name": "Canadiens",
      "fullname": "Montreal Canadiens",
      "arena": "Bell Centre",
      "prefix": "Montreal",
      "suffix": "",
      "league": "NHL",
      "conference": "Eastern",
      "division": "Atlantic"
     }
    },
    "Senators": {
     "teaminfo": {
      "city": "Ottawa",
      "area": "ON",
      "fullarea": "Ontario",
      "country": "CAN",
      "fullcountry": "Canada",
      "name": "Senators",
      "fullname": "Ottawa Senators",
      "arena": "Canadian Tire Centre",
      "prefix": "Ottawa",
      "suffix": "",
      "league": "NHL",
      "conference": "Eastern",
      "division": "Atlantic"
     }
    },
    "Lightning": {
     "teaminfo": {
      "city": "Tampa Bay",
      "area": "FL",
      "fullarea": "Florida",
      "country": "USA",
      "fullcountry": "United States",
      "name": "Lightning",
      "fullname": "Tampa Bay Lightning",
      "arena": "Amalie Arena",
      "prefix": "Tampa Bay",
      "suffix": "",
      "league": "NHL",
      "conference": "Eastern",
      "division": "Atlantic"
     }
    },
    "Maple Leafs": {
     "teaminfo": {
      "city": "Toronto",
      "area": "ON",
      "fullarea": "Ontario",
      "country": "CAN",
      "fullcountry": "Canada",
      "name": "Maple Leafs",
      "fullname": "Toronto Maple Leafs",
      "arena": "Air Canada Centre",
      "prefix": "Toronto",
      "suffix": "",
      "league": "NHL",
      "conference": "Eastern",
      "division": "Atlantic"
     }
    },
    "teamlist": [
     "Bruins",
     "Sabres",
     "Red Wings",
     "Panthers",
     "Canadiens",
     "Senators",
     "Lightning",
     "Maple Leafs"
    ]
   },
   "Metropolitan": {
    "divisioninfo": {
     "name": "Metropolitan",
     "prefix": "",
     "suffix": "Division",
     "fullname": "Metropolitan Division",
     "league": "NHL",
     "conference": "Eastern"
    },
    "Hurricanes": {
     "teaminfo": {
      "city": "Carolina",
      "area": "NC",
      "fullarea": "North Carolina",
      "country": "USA",
      "fullcountry": "United States",
      "name": "Hurricanes",
      "fullname": "Carolina Hurricanes",
      "arena": "PNC Arena",
      "prefix": "Carolina",
      "suffix": "",
      "league": "NHL",
      "conference": "Eastern",
      "division": "Metropolitan"
     }
    },
    "Blue Jackets": {
     "teaminfo": {
      "city": "Columbus",
      "area": "OH",
      "fullarea": "Ohio",
      "country": "USA",
      "fullcountry": "United States",
      "name": "Blue Jackets",
      "fullname": "Columbus Blue Jackets",
      "arena": "Nationwide Arena",
      "prefix": "Columbus",
      "suffix": "",
      "league": "NHL",
      "conference": "Eastern",
      "division": "Metropolitan"
     }
    },
    "Devils": {
     "teaminfo": {
      "city": "New Jersey",
      "area": "NJ",
      "fullarea": "New Jersey",
      "country": "USA",
      "fullcountry": "United States",
      "name": "Devils",
      "fullname": "New Jersey Devils",
      "arena": "Prudential Center",
      "prefix": "New Jersey",
      "suffix": "",
      "league": "NHL",
      "conference": "Eastern",
      "division": "Metropolitan"
     }
    },
    "Islanders": {
     "teaminfo": {
      "city": "New York City",
      "area": "NY",
      "fullarea": "New York",
      "country": "USA",
      "fullcountry": "United States",
      "name": "Islanders",
      "fullname": "New York Islanders",
      "arena": "Barclays Center",
      "prefix": "New York",
      "suffix": "",
      "league": "NHL",
      "conference": "Eastern",
      "division": "Metropolitan"
     }
    },
    "Rangers": {
     "teaminfo": {
      "city": "New York City",
      "area": "NY",
      "fullarea": "New York",
      "country": "USA",
      "fullcountry": "United States",
      "name": "Rangers",
      "fullname": "New York Rangers",
      "arena": "Madison Square Garden",
      "prefix": "New York",
      "suffix": "",
      "league": "NHL",
      "conference": "Eastern",
      "division": "Metropolitan"
     }
    },
    "Flyers": {
     "teaminfo": {
      "city": "Philadelphia",
      "area": "PA",
      "fullarea": "Pennsylvania",
      "country": "USA",
      "fullcountry": "United States",
      "name": "Flyers",
      "fullname": "Philadelphia Flyers",
      "arena": "Wells Fargo Center",
      "prefix": "Philadelphia",
      "suffix": "",
      "league": "NHL",
      "conference": "Eastern",
      "division": "Metropolitan"
     }
    },
    "Penguins": {
     "teaminfo": {
      "city": "Pittsburgh",
      "area": "PA",
      "fullarea": "Pennsylvania",
      "country": "USA",
      "fullcountry": "United States",
      "name": "Penguins",
      "fullname": "Pittsburgh Penguins",
      "arena": "Consol Energy Center",
      "prefix": "Pittsburgh",
      "suffix": "",
      "league": "NHL",
      "conference": "Eastern",
      "division": "Metropolitan"
     }
    },
    "Capitals": {
     "teaminfo": {
      "city": "Washington",
      "area": "DC",
      "fullarea": "District of Columbia",
      "country": "USA",
      "fullcountry": "United States",
      "name": "Capitals",
      "fullname": "Washington Capitals",
      "arena": "Verizon Center",
      "prefix": "Washington",
      "suffix": "",
      "league": "NHL",
      "conference": "Eastern",
      "division": "Metropolitan"
     }
    },
    "teamlist": [
     "Hurricanes",
     "Blue Jackets",
     "Devils",
     "Islanders",
     "Rangers",
     "Flyers",
     "Penguins",
     "Capitals"
    ]
   },
   "divisionlist": [
    "Atlantic",
    "Metropolitan"
   ]
  },
  "arenas": [
   {
    "city": "Foxborough",
    "area": "MA",
    "fullarea": "Massachusetts",
    "country": "USA",
    "fullcountry": "United States",
    "name": "Gillette Stadium"
   },
   {
    "city": "Minneapolis",
    "area": "MN",
    "fullarea": "Minnesota",
    "country": "USA",
    "fullcountry": "United States",
    "name": "TCF Bank Stadium"
   },
   {
    "city": "Denver",
    "area": "CO",
    "fullarea": "Colorado",
    "country": "USA",
    "fullcountry": "United States",
    "name": "Coors Field"
   }
  ],
  "games": [],
  "Western": {
   "conferenceinfo": {
    "name": "Western",
    "prefix": "",
    "suffix": "Conference",
    "fullname": "Western Conference",
    "league": "NHL"
   },
   "Central": {
    "divisioninfo": {
     "name": "Central",
     "prefix": "",
     "suffix": "Division",
     "fullname": "Central Division",
     "league": "NHL",
     "conference": "Western"
    },
    "Blackhawks": {
     "teaminfo": {
      "city": "Chicago",
      "area": "IL",
      "fullarea": "Illinois",
      "country": "USA",
      "fullcountry": "United States",
      "name": "Blackhawks",
      "fullname": "Chicago Blackhawks",
      "arena": "United Center",
      "prefix": "Chicago",
      "suffix": "",
      "league": "NHL",
      "conference": "Western",
      "division": "Central"
     }
    },
    "Avalanche": {
     "teaminfo": {
      "city": "Denver",
      "area": "CO",
      "fullarea": "Colorado",
      "country": "USA",
      "fullcountry": "United States",
      "name": "Avalanche",
      "fullname": "Colorado Avalanche",
      "arena": "Pepsi Center",
      "prefix": "Colorado",
      "suffix": "",
      "league": "NHL",
      "conference": "Western",
      "division": "Central"
     }
    },
    "Stars": {
     "teaminfo": {
      "city": "Dallas",
      "area": "TX",
      "fullarea": "Texas",
      "country": "USA",
      "fullcountry": "United States",
      "name": "Stars",
      "fullname": "Dallas Stars",
      "arena": "American Airlines Center",
      "prefix": "Dallas",
      "suffix": "",
      "league": "NHL",
      "conference": "Western",
      "division": "Central"
     }
    },
    "Wild": {
     "teaminfo": {
      "city": "St. Paul",
      "area": "MN",
      "fullarea": "Minnesota",
      "country": "USA",
      "fullcountry": "United States",
      "name": "Wild",
      "fullname": "Minnesota Wild",
      "arena": "Xcel Energy Center",
      "prefix": "Minnesota",
      "suffix": "",
      "league": "NHL",
      "conference": "Western",
      "division": "Central"
     }
    },
    "Predators": {
     "teaminfo": {
      "city": "Nashville",
      "area": "TN",
      "fullarea": "Tennessee",
      "country": "USA",
      "fullcountry": "United States",
      "name": "Predators",
      "fullname": "Nashville Predators",
      "arena": "Bridgestone Arena",
      "prefix": "Nashville",
      "suffix": "",
      "league": "NHL",
      "conference": "Western",
      "division": "Central"
     }
    },
    "Blues": {
     "teaminfo": {
      "city": "St. Louis",
      "area": "MO",
      "fullarea": "Missouri",
      "country": "USA",
      "fullcountry": "United States",
      "name": "Blues",
      "fullname": "St. Louis Blues",
      "arena": "Scottrade Center",
      "prefix": "St. Louis",
      "suffix": "",
      "league": "NHL",
      "conference": "Western",
      "division": "Central"
     }
    },
    "Jets": {
     "teaminfo": {
      "city": "Winnipeg",
      "area": "MB",
      "fullarea": "Manitoba",
      "country": "CAN",
      "fullcountry": "Canada",
      "name": "Jets",
      "fullname": "Winnipeg Jets",
      "arena": "MTS Centre",
      "prefix": "Winnipeg",
      "suffix": "",
      "league": "NHL",
      "conference": "Western",
      "division": "Central"
     }
    },
    "teamlist": [
     "Blackhawks",
     "Avalanche",
     "Stars",
     "Wild",
     "Predators",
     "Blues",
     "Jets"
    ]
   },
   "Pacific": {
    "divisioninfo": {
     "name": "Pacific",
     "prefix": "",
     "suffix": "Division",
     "fullname": "Pacific Division",
     "league": "NHL",
     "conference": "Western"
    },
    "Ducks": {
     "teaminfo": {
      "city": "Anaheim",
      "area": "CA",
      "fullarea": "California",
      "country": "USA",
      "fullcountry": "United States",
      "name": "Ducks",
      "fullname": "Anaheim Ducks",
      "arena": "Honda Center",
      "prefix": "Anaheim",
      "suffix": "",
      "league": "NHL",
      "conference": "Western",
      "division": "Pacific"
     }
    },
    "Coyotes": {
     "teaminfo": {
      "city": "Glendale",
      "area": "AZ",
      "fullarea": "Arizona",
      "country": "USA",
      "fullcountry": "United States",
      "name": "Coyotes",
      "fullname": "Arizona Coyotes",
      "arena": "Gila River Arena",
      "prefix": "Arizona",
      "suffix": "",
      "league": "NHL",
      "conference": "Western",
      "division": "Pacific"
     }
    },
    "Flames": {
     "teaminfo": {
      "city": "Calgary",
      "area": "AB",
      "fullarea": "Alberta",
      "country": "CAN",
      "fullcountry": "Canada",
      "name": "Flames",
      "fullname": "Calgary Flames",
      "arena": "Scotiabank Saddledome",
      "prefix": "Calgary",
      "suffix": "",
      "league": "NHL",
      "conference": "Western",
      "division": "Pacific"
     }
    },
    "Oilers": {
     "teaminfo": {
      "city": "Edmonton",
      "area": "AB",
      "fullarea": "Alberta",
      "country": "CAN",
      "fullcountry": "Canada",
      "name": "Oilers",
      "fullname": "Edmonton Oilers",
      "arena": "Rexall Place",
      "prefix": "Edmonton",
      "suffix": "",
      "league": "NHL",
      "conference": "Western",
      "division": "Pacific"
     }
    },
    "Kings": {
     "teaminfo": {
      "city": "Los Angeles",
      "area": "CA",
      "fullarea": "California",
      "country": "USA",
      "fullcountry": "United States",
      "name": "Kings",
      "fullname": "Los Angeles Kings",
      "arena": "Staples Center",
      "prefix": "Los Angeles",
      "suffix": "",
      "league": "NHL",
      "conference": "Western",
      "division": "Pacific"
     }
    },
    "Sharks": {
     "teaminfo": {
      "city": "San Jose",
      "area": "CA",
      "fullarea": "California",
      "country": "USA",
      "fullcountry": "United States",
      "name": "Sharks",
      "fullname": "San Jose Sharks",
      "arena": "SAP Center",
      "prefix": "San Jose",
      "suffix": "",
      "league": "NHL",
      "conference": "Western",
      "division": "Pacific"
     }
    },
    "Canucks": {
     "teaminfo": {
      "city": "Vancouver",
      "area": "BC",
      "fullarea": "British Columbia",
      "country": "CAN",
      "fullcountry": "Canada",
      "name": "Canucks",
      "fullname": "Vancouver Canucks",
      "arena": "Rogers Arena",
      "prefix": "Vancouver",
      "suffix": "",
      "league": "NHL",
      "conference": "Western",
      "division": "Pacific"
     }
    },
    "teamlist": [
     "Ducks",
     "Coyotes",
     "Flames",
     "Oilers",
     "Kings",
     "Sharks",
     "Canucks"
    ]
   },
   "divisionlist": [
    "Central",
    "Pacific"
   ]
  },
  "conferencelist": [
   "Eastern",
   "Western"
  ]
 },
 "leaguelist": [
  "ECHL",
  "AHL",
  "NHL"
 ]
}